…
``` r
cv_df  =
  crossv_mc(nonlin_df, 100)
```

one note about resample …

``` r
cv_df %>% pull(train) %>% .[[1]] %>% 
  as_tibble
```

    ## # A tibble: 79 x 3
    ##       id      x      y
    ##    <int>  <dbl>  <dbl>
    ##  1     1 0.745  -0.800
    ##  2     2 0.0686  0.986
    ##  3     3 0.767  -1.34 
    ##  4     5 0.591   0.389
    ##  5     6 0.657   0.438
    ##  6     7 0.451   1.18 
    ##  7     9 0.906  -2.51 
    ##  8    10 0.0277  0.352
    ##  9    12 0.823  -1.49 
    ## 10    13 0.289   0.671
    ## # ... with 69 more rows
…
